<?xml version="1.0" standalone="no"?> 
<!DOCTYPE svg PUBLIC "-//W3C//DTD SVG 1.1//EN" "http://www.w3.org/Graphics/SVG/1.1/DTD/svg11.dtd" >
<svg xmlns="http://www.w3.org/2000/svg">
<defs>
  <font id="iconHub" horiz-adv-x="512">
    <font-face font-family="iconHub"
      units-per-em="512" ascent="512"
      descent="0" />
    <missing-glyph horiz-adv-x="0" />
    <glyph glyph-name="instagram"
      unicode="&#xF101;"
      horiz-adv-x="512" d=" M256 473.6C324.608 473.6 332.8 473.6 359.936 472.064A151.68 151.68 0 0 0 410.24 462.592A89.60000000000002 89.60000000000002 0 0 0 441.6 442.112L441.6 442.112L441.6 442.112A89.60000000000002 89.60000000000002 0 0 0 462.9760000000001 409.6A149.88800000000003 149.88800000000003 0 0 0 472.32 359.68C473.6 332.8 473.6 325.376 473.6 256S473.6 179.2 472.0640000000001 152.064A148.48000000000002 148.48000000000002 0 0 0 462.7200000000001 102.144A93.05600000000001 93.05600000000001 0 0 0 409.6 49.152A149.12000000000003 149.12000000000003 0 0 0 359.6800000000001 39.8080000000001C332.8 38.4 324.096 38.4 256 38.4S179.2 38.4 152.192 39.808A148.73600000000005 148.73600000000005 0 0 0 102.4 49.28A88.06400000000002 88.06400000000002 0 0 0 70.528 70.272A87.42400000000002 87.42400000000002 0 0 0 49.28 102.4A144.89600000000002 144.89600000000002 0 0 0 39.936 152.192C38.4 179.2 38.4 188.032 38.4 256S38.4 332.8 40.064 359.936A144.64000000000004 144.64000000000004 0 0 0 49.536 409.6A87.04 87.04 0 0 0 70.016 441.6L70.016 441.6L70.016 441.6A87.04 87.04 0 0 0 102.4 462.848A148.35200000000003 148.35200000000003 0 0 0 152.32 472.192C179.2 473.6 188.16 473.6 256 473.6M256 512C186.496 512 177.792 512 150.4 510.464A183.80800000000002 183.80800000000002 0 0 1 88.32 498.56A124.67200000000001 124.67200000000001 0 0 1 43.008 468.992A126.59200000000003 126.59200000000003 0 0 1 13.568 423.68A187.008 187.008 0 0 1 1.664 361.6C0 334.208 0 325.504 0 256S0 177.792 1.536 150.4A187.008 187.008 0 0 1 13.44 88.3199999999999A130.56 130.56 0 0 1 88.32 12.8A184.704 184.704 0 0 1 150.528 0.896C177.792 -0.384 186.4960000000001 -0.64 256 -0.64S334.2080000000001 -0.64 361.4720000000001 0.896A184.06400000000002 184.06400000000002 0 0 1 423.6800000000001 12.8A131.07200000000003 131.07200000000003 0 0 1 499.2 88.3199999999999A187.008 187.008 0 0 1 511.104 150.4C512 177.792 512 186.496 512 256S512 334.208 510.592 361.472A182.528 182.528 0 0 1 499.2 423.552A121.98400000000001 121.98400000000001 0 0 1 469.632 468.992A125.31200000000001 125.31200000000001 0 0 1 424.32 498.56A187.39200000000002 187.39200000000002 0 0 1 361.7280000000001 510.336C334.336 512 325.6320000000001 512 256 512z M256 387.456A131.584 131.584 0 1 1 387.5840000000001 256A131.45600000000002 131.45600000000002 0 0 1 256 387.456zM256 170.624A85.376 85.376 0 1 0 341.3760000000001 256A85.376 85.376 0 0 0 256 170.624z M423.5520000000001 392.704A30.720000000000006 30.720000000000006 0 1 0 392.8320000000001 423.424A30.720000000000006 30.720000000000006 0 0 0 423.5520000000001 392.704z" />
    <glyph glyph-name="like-fill"
      unicode="&#xF102;"
      horiz-adv-x="512" d=" M257.024 31.36A32.384 32.384 0 0 0 235.264 39.552C215.296 56.96 196.864 72.448 179.584 87.424L177.536 89.6A1081.088 1081.088 0 0 0 54.4 204.8C18.432 247.168 1.664 287.616 1.664 331.648A162.04800000000003 162.04800000000003 0 0 0 40.96 439.424A138.496 138.496 0 0 0 146.304 486.4A136.832 136.832 0 0 0 257.024 428.928A136.448 136.448 0 0 0 367.616 486.4A139.008 139.008 0 0 0 473.6 439.424H473.6A162.56000000000003 162.56000000000003 0 0 0 512 331.648C512 287.616 495.232 247.168 459.2640000000001 203.648A1078.7840000000003 1078.7840000000003 0 0 0 336.2560000000001 88.4479999999999C317.3120000000001 72.3199999999999 298.7520000000001 56.5759999999999 279.0400000000001 39.2959999999999A32.896 32.896 0 0 0 257.024 31.36z" />
    <glyph glyph-name="like"
      unicode="&#xF103;"
      horiz-adv-x="512" d=" M256 28.16A33.02400000000001 33.02400000000001 0 0 0 234.24 36.352C214.2720000000001 53.76 195.84 69.2480000000001 178.56 84.2240000000001L176.512 86.0160000000001A1080.96 1080.96 0 0 0 53.376 201.2160000000001C17.408 243.9680000000001 0.64 284.4160000000001 0.64 329.2160000000001A163.07200000000003 163.07200000000003 0 0 0 39.808 436.352A139.008 139.008 0 0 0 145.28 483.84A136.832 136.832 0 0 0 256 426.368A136.448 136.448 0 0 0 366.5920000000001 483.84A139.008 139.008 0 0 0 472.0640000000001 436.352H472.0640000000001A163.07200000000003 163.07200000000003 0 0 0 511.2320000000001 328.576C511.2320000000001 284.416 494.4640000000001 243.968 458.4960000000001 200.576A1090.1760000000002 1090.1760000000002 0 0 0 335.4880000000001 85.376C316.5440000000001 69.376 297.9840000000001 53.504 278.2720000000001 36.2239999999999A33.53600000000001 33.53600000000001 0 0 0 256 28.16zM145.28 445.44A100.48000000000002 100.48000000000002 0 0 1 68.48 410.88A123.39200000000001 123.39200000000001 0 0 1 38.784 328.576C38.784 294.016 52.736 261.376 82.56 226.176A1061.3760000000002 1061.3760000000002 0 0 1 201.344 115.2L203.52 113.408C220.288 99.2 237.5680000000001 84.3519999999999 256 68.3519999999999C275.072 84.9919999999999 292.608 99.9679999999999 309.6320000000001 114.56A1070.592 1070.592 0 0 1 429.0560000000001 225.9199999999999C459.008 261.3759999999999 472.8320000000001 294.016 472.8320000000001 328.32A123.90400000000001 123.90400000000001 0 0 1 443.2640000000001 410.88H443.2640000000001A99.71200000000002 99.71200000000002 0 0 1 283.392 398.848A159.10399999999998 159.10399999999998 0 0 1 272.896 381.824A19.328000000000003 19.328000000000003 0 0 0 238.9760000000001 381.824A140.8 140.8 0 0 1 228.48 398.848A101.12 101.12 0 0 1 145.28 445.44z" />
    <glyph glyph-name="location"
      unicode="&#xF104;"
      horiz-adv-x="512" d=" M264.96 477.44A145.536 145.536 0 0 0 390.016 257.536L267.264 52.736L140.8 256A145.40800000000002 145.40800000000002 0 0 0 264.96 477.44M264.96 512A180.096 180.096 0 0 1 111.36 237.312L254.208 6.912A15.232 15.232 0 0 1 267.008 -0.128H267.008A14.72 14.72 0 0 1 279.808 7.168L419.5840000000001 239.744A179.96800000000002 179.96800000000002 0 0 1 264.96 512z M264.96 422.4A89.60000000000002 89.60000000000002 0 1 1 354.56 332.8A89.60000000000002 89.60000000000002 0 0 1 264.96 422.4zM264.96 272.128A60.28800000000001 60.28800000000001 0 1 0 325.12 332.416A60.41600000000001 60.41600000000001 0 0 0 264.96 271.7440000000001z" />
    <glyph glyph-name="login"
      unicode="&#xF105;"
      horiz-adv-x="512" d=" M402.3040000000001 0H169.472A18.688000000000002 18.688000000000002 0 1 0 169.472 37.2479999999999H402.3040000000001C424.704 37.2479999999999 442.8800000000001 51.712 442.8800000000001 69.504V442.368C442.8800000000001 460.032 424.704 474.496 402.3040000000001 474.496H169.472A18.688000000000002 18.688000000000002 0 1 0 169.472 511.744H402.3040000000001C445.312 511.744 480.256 480.64 480.256 442.368V69.888C480.2560000000001 31.488 445.312 0 402.3040000000001 0z M297.344 240.768H31.488A18.688000000000002 18.688000000000002 0 0 0 31.488 278.144H297.344A18.688000000000002 18.688000000000002 0 0 0 297.344 240.7679999999999z M169.472 97.536A18.048 18.048 0 0 0 156.672 103.04A18.560000000000002 18.560000000000002 0 0 0 156.672 129.4079999999999L289.152 262.272L156.288 395.136A18.688000000000002 18.688000000000002 0 0 0 182.656 421.504L328.704 275.456A18.560000000000002 18.560000000000002 0 0 0 328.704 249.088L182.656 102.4A18.560000000000002 18.560000000000002 0 0 0 169.472 97.536z" />
    <glyph glyph-name="logo"
      unicode="&#xF106;"
      horiz-adv-x="1066.3360703134035" d=" M328.3265872556957 497.1379669249451H736.4107783046143ANaN NaN NaN 0 0 875.8533595466636 497.1379669249451V218.2528044408466ANaN NaN NaN 0 0 736.4107783046143 218.2528044408466H328.3265872556957ANaN NaN NaN 0 0 188.8840060136464 218.2528044408466V497.1379669249451ANaN NaN NaN 0 0 328.3265872556957 497.1379669249451z M357.2216953856829 409.564473227709L363.1428241008442 403.6433445125477L363.1428241008442 299.9051694229213L357.2216953856829 305.8262981380826z M409.0907829304962 357.6953856828958L415.0119116456575 351.7742569677345L311.273736556031 351.7742569677345L305.3526078408697 357.6953856828958z M685.7851277899849 405.9525847114607C685.7851277899849 393.9511375468711 695.5142230100375 384.2220423268186 707.5156701746271 384.2220423268186C719.5171173392166 384.2220423268186 729.2462125592691 393.9511375468711 729.2462125592691 405.9525847114607C729.2462125592691 417.9540318760501 719.5171173392166 427.6831270961027 707.5156701746271 427.6831270961027C695.5142230100375 427.6831270961027 685.7851277899849 417.9540318760501 685.7851277899849 405.9525847114607z M685.7851277899849 309.3789753671794C685.7851277899849 297.3775282025899 695.5142230100375 287.6484329825373 707.5156701746271 287.6484329825373C719.5171173392166 287.6484329825373 729.2462125592691 297.3775282025899 729.2462125592691 309.3789753671794C729.2462125592691 321.3804225317689 719.5171173392166 331.1095177518215 707.5156701746271 331.1095177518215C695.5142230100375 331.1095177518215 685.7851277899849 321.3804225317689 685.7851277899849 309.3789753671794z M726.7001272117498 357.6953856828958C726.7001272117498 345.6939385183063 736.4292224318024 335.9648432982538 748.4306695963919 335.9648432982538C760.4321167609813 335.9648432982538 770.1612119810338 345.6939385183063 770.1612119810338 357.6953856828958C770.1612119810338 369.6968328474854 760.4321167609813 379.4259280675378 748.4306695963919 379.4259280675378C736.4292224318024 379.4259280675378 726.7001272117498 369.6968328474854 726.7001272117498 357.6953856828958z M642.2648317335493 357.6953856828958C642.2648317335493 345.6939385183063 651.9939269536018 335.9648432982538 663.9953741181913 335.9648432982538C675.9968212827808 335.9648432982538 685.7259165028333 345.6939385183063 685.7259165028333 357.6953856828958C685.7259165028333 369.6968328474854 675.9968212827808 379.4259280675378 663.9953741181913 379.4259280675378C651.9939269536018 379.4259280675378 642.2648317335493 369.6968328474854 642.2648317335493 357.6953856828958z" />
    <glyph glyph-name="logout"
      unicode="&#xF107;"
      horiz-adv-x="512" d=" M335.7440000000001 0H102.4C59.392 0 24.32 31.232 24.32 69.504V442.496C24.576 480.896 59.648 512 102.4 512H335.7440000000001A18.688000000000002 18.688000000000002 0 1 0 335.7440000000001 474.624H102.4C80.256 474.624 61.952 460.8 61.952 442.496V69.504C61.952 51.2 80.256 37.376 102.4 37.376H335.7440000000001A18.688000000000002 18.688000000000002 0 1 0 335.7440000000001 0z M455.6800000000001 246.272H189.568A18.688000000000002 18.688000000000002 0 1 0 189.568 283.6479999999999H455.6800000000001A18.688000000000002 18.688000000000002 0 0 0 455.6800000000001 246.272z M327.6800000000001 97.28A18.304000000000002 18.304000000000002 0 0 0 314.8800000000001 102.784A18.560000000000002 18.560000000000002 0 0 0 314.8800000000001 129.152L448 262.144L314.4960000000001 395.264A18.688000000000002 18.688000000000002 0 0 0 340.8640000000001 421.632L487.1680000000001 275.456A18.816000000000003 18.816000000000003 0 0 0 487.1680000000001 248.96L340.8640000000001 102.4A18.304000000000002 18.304000000000002 0 0 0 327.6800000000001 97.28z" />
    <glyph glyph-name="menu"
      unicode="&#xF108;"
      horiz-adv-x="512" d=" M492 276H20C8.954 276 0 267.046 0 256C0 244.954 8.954 236 20 236H492C503.046 236 512 244.954 512 256S503.046 276 492 276z M492 436H20C8.954 436 0 427.046 0 416S8.954 396 20 396H492C503.046 396 512 404.954 512 416S503.046 436 492 436z M492 116H20C8.954 116 0 107.046 0 96C0 84.954 8.954 76 20 76H492C503.046 76 512 84.954 512 96C512 107.046 503.046 116 492 116z" />
    <glyph glyph-name="profile"
      unicode="&#xF109;"
      horiz-adv-x="512" d=" M469.376 90.496A213.88800000000003 213.88800000000003 0 0 1 325.8880000000001 285.312A123.52000000000004 123.52000000000004 0 1 1 186.112 285.312A214.01600000000005 214.01600000000005 0 0 1 42.624 92.16V87.936C42.624 86.4000000000001 42.624 84.864 42.624 83.328H42.624C90.624 30.976 172.416 0 256 0S421.12 31.104 469.376 83.328H469.376C469.376 84.7359999999999 469.376 86.016 469.376 87.424zM166.4 387.072A89.60000000000002 89.60000000000002 0 1 0 256 297.472A90.24000000000001 90.24000000000001 0 0 0 166.4 387.072zM76.8 97.664A180.096 180.096 0 0 0 435.9680000000001 97.664C393.2160000000001 56.192 327.6800000000001 31.872 256.7680000000001 31.872S119.168 55.9359999999999 76.8 97.664z" />
    <glyph glyph-name="reply"
      unicode="&#xF10A;"
      horiz-adv-x="512" d=" M392.192 174.208H170.88A19.968000000000007 19.968000000000007 0 1 0 170.88 214.144H392.192A77.82400000000003 77.82400000000003 0 0 1 392.192 369.7920000000001H23.936A19.968000000000007 19.968000000000007 0 0 0 23.936 409.6H392.192A117.76 117.76 0 1 0 392.192 174.08z M250.24 81.408A19.456000000000007 19.456000000000007 0 0 0 236.16 87.296L142.08 181.376A19.840000000000003 19.840000000000003 0 0 0 142.08 209.536L233.472 300.928A19.968000000000007 19.968000000000007 0 0 0 261.632 272.7680000000001L184.832 195.968L264.32 115.2A19.840000000000003 19.840000000000003 0 0 0 264.32 87.04A19.456000000000007 19.456000000000007 0 0 0 250.24 81.408z" />
    <glyph glyph-name="search"
      unicode="&#xF10B;"
      horiz-adv-x="512" d=" M226.304 510.464A224.76800000000006 224.76800000000006 0 1 1 451.0720000000001 285.6960000000001A224.896 224.896 0 0 1 226.304 510.464zM226.304 102.4A183.29600000000002 183.29600000000002 0 1 0 409.6 285.6960000000001A183.42400000000004 183.42400000000004 0 0 0 226.304 102.4z M505.8560000000001 35.456L386.9440000000001 154.368A20.736000000000004 20.736000000000004 0 0 1 357.6320000000001 125.0560000000001L476.5440000000001 6.144A20.608000000000004 20.608000000000004 0 0 1 491.2640000000001 1e-13A20.864 20.864 0 0 1 505.8560000000001 35.4560000000001z" />
    <glyph glyph-name="star"
      unicode="&#xF10C;"
      horiz-adv-x="512" d=" M256 512L313.4757236363637 319.0272H499.4699636363637L348.9973527272727 199.7637818181818L406.4730763636364 6.7909818181818L256 126.0544L105.5269236363637 6.7909818181818L163.0026472727273 199.7637818181818L12.5295243636364 319.0272H198.5242763636364L256 512z" />
    <glyph glyph-name="telegram"
      unicode="&#xF10D;"
      horiz-adv-x="512" d=" M8.832 262.4L134.016 200.064A16.128000000000004 16.128000000000004 0 0 1 149.248 200.064L260.736 264.832L193.28 205.568A16.128000000000004 16.128000000000004 0 0 1 187.776 193.536V48A16.000000000000004 16.000000000000004 0 0 1 216.576 38.4L270.7200000000001 110.336L404.6080000000001 33.5360000000001A16.000000000000004 16.000000000000004 0 0 1 428.1600000000001 44.2880000000001L512 460.8A16.000000000000004 16.000000000000004 0 0 1 490.496 478.848L10.112 291.712A16.128000000000004 16.128000000000004 0 0 1 8.832 262.4zM474.496 438.4L401.1520000000001 72.8319999999999L274.3040000000001 145.024A15.744000000000002 15.744000000000002 0 0 1 253.6960000000001 140.8L219.7760000000001 95.872V186.368L402.3040000000001 348.032A16.000000000000004 16.000000000000004 0 0 1 383.616 373.632L140.416 232.832L55.424 274.944z" />
    <glyph glyph-name="twitter"
      unicode="&#xF10E;"
      horiz-adv-x="512" d=" M509.696 403.968C477.568 402.56 478.336 402.688 474.624 402.304L493.696 456.576S434.432 434.816 419.328 430.976A118.91200000000002 118.91200000000002 0 0 1 279.296 442.24A97.02400000000002 97.02400000000002 0 0 1 232.704 342.528A258.4320000000001 258.4320000000001 0 0 0 65.152 436.736L51.2 453.632L40.576 434.304A116.35200000000005 116.35200000000005 0 0 1 27.776 355.8400000000001A111.74400000000001 111.74400000000001 0 0 1 38.656 325.248L26.624 329.856L25.6 309.76A107.64800000000002 107.64800000000002 0 0 1 43.776 245.76A109.05600000000001 109.05600000000001 0 0 1 57.984 228.352L51.2 229.248L58.88 206.208A112.256 112.256 0 0 1 116.608 139.264C89.6 128 68.48 120.576 32.64 108.8L0 98.048L30.208 81.536A317.44000000000005 317.44000000000005 0 0 1 122.624 48C212.224 33.92 312.576 45.312 380.288 106.3679999999999C437.3760000000001 157.568 456.0640000000001 230.784 452.096 306.816A47.616 47.616 0 0 0 461.056 337.792C473.6 354.688 509.568 403.8400000000001 509.696 403.968zM437.12 355.712A76.80000000000001 76.80000000000001 0 0 1 422.4000000000001 305.28C426.24 228.48 405.3760000000001 169.088 360.32 128.512C307.2000000000001 81.024 222.72 62.464 127.232 76.8A224.38400000000001 224.38400000000001 0 0 0 76.8 92.288A782.5920000000002 782.5920000000002 0 0 1 167.168 129.408L219.904 153.6L162.304 157.312A81.152 81.152 0 0 0 98.304 194.1759999999999A105.60000000000002 105.60000000000002 0 0 1 120.192 197.76L175.104 213.12L119.04 227.2A83.072 83.072 0 0 0 57.856 286.336A129.40800000000002 129.40800000000002 0 0 1 80.256 282.752L131.456 277.632L90.88 309.376A85.504 85.504 0 0 0 58.496 398.976A297.4720000000001 297.4720000000001 0 0 1 267.904 309.376A179.84000000000003 179.84000000000003 0 0 1 264.8320000000001 334.976A68.352 68.352 0 0 0 294.4000000000001 416.64A89.60000000000002 89.60000000000002 0 0 0 399.616 407.936A27.264000000000003 27.264000000000003 0 0 1 424.192 401.408C431.8720000000001 403.328 438.1440000000001 405.376 444.416 407.552L431.616 370.816H448z" />
    <glyph glyph-name="user-placeholder"
      unicode="&#xF10F;"
      horiz-adv-x="512" d=" M256 511.9887551612053C114.6298866731091 511.9887551612053 0 397.3813581656857 0 256S114.6186418343143 0.0112448387947 256 0.0112448387947C397.3926030044804 0.0112448387947 512 114.6186418343143 512 256S397.3926030044805 511.9887551612053 256 511.9887551612053zM256 435.4451374857244C302.7785293859264 435.4451374857244 340.6848809628393 397.5275410700167 340.6848809628393 350.7715013616797C340.6848809628393 304.004216814548 302.7785293859264 266.097865237635 256 266.097865237635C209.243960291663 266.097865237635 171.3376087147501 304.004216814548 171.3376087147501 350.7715013616797C171.3376087147501 397.5275410700167 209.243960291663 435.4451374857244 256 435.4451374857244zM255.9437758060266 66.9405253448124C209.2889396468418 66.9405253448124 166.5585522270052 83.9314767635948 133.5999297197576 112.0548185891241C125.5711148203461 118.9029254150927 120.9382412369323 128.9445664587543 120.9382412369323 139.4809804093824C120.9382412369323 186.9004656066063 159.3168760432224 224.851796538698 206.747606079241 224.851796538698H305.2748835983484C352.7168584731618 224.851796538698 390.9493103751208 186.9004656066063 390.9493103751208 139.4809804093824C390.9493103751208 128.9333216199596 386.3389264692964 118.9141702538873 378.2988667310903 112.0660634279188C345.3514890626373 83.9314767635948 302.6098568040061 66.9405253448124 255.9437758060266 66.9405253448124z" />
    <glyph glyph-name="youtube"
      unicode="&#xF110;"
      horiz-adv-x="512" d=" M334.848 271.36L221.696 332.8A20.480000000000004 20.480000000000004 0 0 1 201.088 332.8A20.224000000000004 20.224000000000004 0 0 1 190.976 315.008V192A20.224000000000004 20.224000000000004 0 0 1 201.088 174.208A19.840000000000003 19.840000000000003 0 0 1 211.712 171.264A20.736000000000004 20.736000000000004 0 0 1 221.568 173.696L334.7200000000001 234.496A20.864 20.864 0 0 1 334.7200000000001 271.104zM220.928 207.36V299.392L305.536 253.1840000000001z M256 403.8400000000001C259.456 403.8400000000001 358.4000000000001 403.2 423.5520000000001 398.464L426.1120000000001 398.464A46.20800000000001 46.20800000000001 0 0 0 457.8560000000001 384A82.04800000000003 82.04800000000003 0 0 0 470.0160000000001 347.52C470.0160000000001 345.856 473.6000000000001 306.304 473.6000000000001 267.392V228.992C473.6000000000001 191.872 470.4000000000001 154.24 470.0160000000001 149.248A84.09600000000002 84.09600000000002 0 0 0 457.2160000000001 112.384A40.96000000000001 40.96000000000001 0 0 0 427.2640000000001 98.688L424.0640000000002 98.688C358.4000000000002 94.08 260.0960000000001 93.312 256.5120000000001 93.312C221.6960000000002 93.312 126.2080000000002 95.7439999999999 93.9520000000001 98.688L87.5520000000001 99.456A48.76800000000001 48.76800000000001 0 0 0 54.5280000000001 112.256L54.5280000000001 112.256L54.5280000000001 112.256A79.74400000000003 79.74400000000003 0 0 0 41.7280000000001 148.48C41.6 153.6 38.4 192 38.4 228.992V267.392C38.4 304.512 41.6 342.016 41.984 347.008A85.376 85.376 0 0 0 54.784 384A43.39200000000001 43.39200000000001 0 0 0 86.016 398.208L87.68 398.208H87.68C154.24 402.944 253.056 403.584 256 403.584M256 441.984H256C254.9760000000001 441.984 152.832 441.984 84.48 436.48H83.456L81.024 436.48A81.02400000000002 81.02400000000002 0 0 1 26.24 409.6C9.216 391.168 4.352 355.328 3.84 351.36V351.36C3.84 349.696 0.128 308.864 0.128 267.904V229.504C0.128 188.416 3.712 147.584 3.84 145.92V145.92C3.84 141.824 8.576 105.856 26.24 87.296A85.376 85.376 0 0 1 83.328 61.696L88.448 61.696H89.6C128.64 57.984 251.2640000000001 56.064 256 56.064H256C257.024 56.064 359.1680000000001 56.704 426.8800000000001 61.696H427.7760000000001L430.5920000000001 61.696A79.10400000000003 79.10400000000003 0 0 1 484.992 87.296C502.016 105.728 506.8800000000001 141.696 507.3920000000001 145.664V145.664C507.3920000000001 147.456 511.104 188.16 511.104 229.248V267.648C511.104 308.608 507.52 349.44 507.3920000000001 351.104V351.104C507.3920000000001 355.2 502.6560000000001 391.936 484.864 410.624A83.456 83.456 0 0 1 429.6960000000001 436.224L427.136 436.224H426.24C359.2960000000001 441.6 257.152 442.24 256 442.24z" />
  </font>
</defs>
</svg>
